{
    "IsEncrypted": false,
  "Values": {
    "AzureWebJobsStorage": "UseDevelopmentStorage=true",
    "AzureWebJobsDashboard": "UseDevelopmentStorage=true",
    //Servicebus
    "SBConn": "Endpoint=sb://crm-ws-service-bus.servicebus.windows.net/;SharedAccessKeyName=RootManageSharedAccessKey;SharedAccessKey=F5Y+1KQp9ZMXJ/xFznRIuf2BCl+LXGV6l33+xqBoOIw=",
    //Database
    "ConnectionString": "Server=tcp:rsg-crm-test.database.windows.net,1433;Initial Catalog=CRM_ETL;Persist Security Info=False;User ID=crmadmin;Password=TopDog365;MultipleActiveResultSets=False;Encrypt=True;TrustServerCertificate=False;Connection Timeout=30;",
    //EventGrid
    "Endpoint": "https://eventprocessestopic.westeurope-1.eventgrid.azure.net/api/events",
    "EventType": "EventProcessesTopic",
    "Secret": "H3RVnRcCSo+NbJtD7/FtSarLeKZt6IJZqD5Ou86Iqg8=",
    //CRM
    "ida:appKey": "sVvHONHKjvIEacws01Y91gMt2yXwlM/L9VkzmcEBulM=",
    "ida:ClientId": "8a5249d1-3a0b-43c8-b9ba-989c7ffc9d9d",
    "ida:ResourceToCRM": "https://eikacrmutv.api.crm4.dynamics.com",
    "ida:AADInstance": "https://login.microsoftonline.com/",
    "ida:TenantId": "9489b80b-0945-4e63-82b4-35f627f53d17",
    //Application Insights
    "APPINSIGHTS_INSTRUMENTATIONKEY": "d187a816-915f-47e2-a94c-2f0e6ba15ce1"
  }
}